…
```r
net <- as_epicontacts(x)
net
```

```
## 
## /// Epidemiological Contacts //
## 
##   // class: epicontacts
##   // 77 cases in linelist; 77 contacts;  directed 
## 
##   // linelist
## 
## # A tibble: 77 x 4
##    id     date_infection date_onset date_report
##    <chr>           <dbl>      <int>       <int>
##  1 eLGzdD              0          3          12
##  2 MQ90i6              4          5          12
##  3 VCEaZ4              8         11          18
##  4 bEGjSA             12         13          17
##  5 k6rcYK             12         16          19
##  6 msP3Ki             15         16          19
##  7 Ntdjbt             16         17          21
##  8 iwXiO6             18         20          24
##  9 vHa6qJ             18         19          22
## 10 8Fix6l             19         21          23
## # … with 67 more rows
## 
##   // contacts
## 
## # A tibble: 77 x 2
##    from   to    
##    <chr>  <chr> 
##  1 <NA>   eLGzdD
##  2 eLGzdD MQ90i6
##  3 MQ90i6 VCEaZ4
##  4 eLGzdD bEGjSA
##  5 eLGzdD k6rcYK
##  6 bEGjSA msP3Ki
##  7 bEGjSA Ntdjbt
##  8 bEGjSA iwXiO6
##  9 MQ90i6 vHa6qJ
## 10 VCEaZ4 8Fix6l
## # … with 67 more rows
```
…
